str[0] = " "
str[1] = "Door"
str[2] = "Leave the School of Sorcery"
str[3] = "Chest"
str[4] = "Button"
str[5] = "Lever"
str[6] = "Vault"
str[7] = "Cabinet"
str[8] = "Switch"
str[9] = ""
str[10] = "Bookcase"
str[11] = ""
str[12] = ""
str[13] = ""
str[14] = "You Successfully disarm the trap"
str[15] = ""
str[16] = "Take a Drink"
str[17] = "Not Very Refreshing"
str[18] = "Refreshing"
str[19] = "There are no items that interest you"
str[20] = ""
str[21] = ""
str[22] = ""
str[23] = ""
str[24] = ""
str[25] = ""
str[26] = ""
str[27] = ""
str[28] = ""
str[29] = ""
str[30] = ""
str[31] = ""
str[32] = ""
str[33] = ""
str[34] = ""
str[35] = ""
str[36] = ""
str[37] = ""
str[38] = ""
str[39] = ""
str[40] = ""
str[41] = ""
str[42] = ""
str[43] = ""
str[44] = ""
str[45] = ""
str[46] = ""
str[47] = ""
str[48] = ""
str[49] = ""
str[50] = ""
str[51] = ""
str[52] = ""
str[53] = ""
str[54] = ""
str[55] = ""
str[56] = ""
str[57] = ""
str[58] = ""
str[59] = ""
str[60] = ""
str[61] = ""
str[62] = ""
str[63] = ""
str[64] = ""
str[65] = ""
str[66] = ""
str[67] = ""
str[68] = ""
str[69] = ""
str[70] = ""
str[71] = ""
str[72] = ""
str[73] = ""
str[74] = ""
str[75] = ""
str[76] = ""
str[77] = ""
str[78] = ""
str[79] = ""
str[80] = ""
str[81] = ""
str[82] = ""
str[83] = ""
str[84] = ""
str[85] = ""
str[86] = ""
str[87] = ""
str[88] = ""
str[89] = ""
str[90] = ""
str[91] = ""
str[92] = ""
str[93] = ""
str[94] = ""
str[95] = ""
str[96] = ""
str[97] = ""
str[98] = ""
str[99] = ""
str[100] = ""
str[101] = ""
str[102] = ""
str[103] = ""
str[104] = ""
str[105] = ""
str[106] = ""
str[107] = ""
str[108] = ""
str[109] = ""
str[110] = ""
str[111] = ""
str[112] = ""
str[113] = ""
str[114] = ""
str[115] = ""
str[116] = ""
str[117] = ""
str[118] = ""
str[119] = ""
str[120] = ""
str[121] = ""


event 1
      Hint = str[100]  -- ""

  0:  OnLoadMap  {}
  1:  Cmp  {"MapVar4", Value = 2,   jump = 3}
  2:  GoTo  {jump = 6}

  3:  SetMonGroupBit  {NPCGroup = 4, Bit = const.MonsterBits.Hostile, On = true}         -- "Guards"
  4:  SetMonGroupBit  {NPCGroup = 5, Bit = const.MonsterBits.Hostile, On = true}         -- "Generic Monster Group for Dungeons"
  5:  SetMonGroupBit  {NPCGroup = 6, Bit = const.MonsterBits.Hostile, On = true}         -- "Group for M1"
  6:  Exit  {}
end

event 3
      Hint = str[5]  -- "Lever"
  0:  SetDoorState  {Id = 3, State = 1}
end

event 4
      Hint = str[5]  -- "Lever"
  0:  SetDoorState  {Id = 4, State = 1}
  1:  SetDoorState  {Id = 5, State = 1}
  2:  SetDoorState  {Id = 8, State = 0}
end

event 5
      Hint = str[5]  -- "Lever"
  0:  SetDoorState  {Id = 8, State = 1}
  1:  SetDoorState  {Id = 1, State = 0}
  2:  SetDoorState  {Id = 6, State = 0}
  3:  SetDoorState  {Id = 4, State = 0}
  4:  SetDoorState  {Id = 5, State = 0}
end

event 6
      Hint = str[5]  -- "Lever"
  0:  SetDoorState  {Id = 9, State = 2}         -- switch state
end

event 7
      Hint = str[100]  -- ""
  0:  SetDoorState  {Id = 10, State = 2}         -- switch state
  1:  SetDoorState  {Id = 11, State = 2}         -- switch state
end

event 8
      Hint = str[5]  -- "Lever"
  0:  SetDoorState  {Id = 1, State = 1}
  1:  SetDoorState  {Id = 6, State = 1}
  2:  SetDoorState  {Id = 8, State = 0}
end

event 9
      Hint = str[5]  -- "Lever"
  0:  SetDoorState  {Id = 2, State = 1}
  1:  SetDoorState  {Id = 7, State = 1}
end

event 10
      Hint = str[8]  -- "Switch"
  0:  SetDoorState  {Id = 24, State = 0}
  1:  SetDoorState  {Id = 20, State = 0}
  2:  SetDoorState  {Id = 21, State = 0}
end

event 11
  0:  SetDoorState  {Id = 22, State = 0}
end

event 12
  0:  SetDoorState  {Id = 23, State = 0}
end

event 176
      Hint = str[3]  -- "Chest"
  0:  OpenChest  {Id = 1}
end

event 177
      Hint = str[3]  -- "Chest"
  0:  OpenChest  {Id = 2}
end

event 178
      Hint = str[3]  -- "Chest"
  0:  OpenChest  {Id = 3}
end

event 179
      Hint = str[3]  -- "Chest"
  0:  OpenChest  {Id = 4}
end

event 180
      Hint = str[3]  -- "Chest"
  0:  OpenChest  {Id = 5}
end

event 181
      Hint = str[3]  -- "Chest"
  0:  OpenChest  {Id = 6}
end

event 182
      Hint = str[3]  -- "Chest"
  0:  OpenChest  {Id = 7}
end

event 183
      Hint = str[3]  -- "Chest"
  0:  OpenChest  {Id = 8}
end

event 184
      Hint = str[3]  -- "Chest"
  0:  OpenChest  {Id = 9}
end

event 185
      Hint = str[3]  -- "Chest"
  0:  OpenChest  {Id = 10}
end

event 186
      Hint = str[3]  -- "Chest"
  0:  OpenChest  {Id = 11}
end

event 187
      Hint = str[3]  -- "Chest"
  0:  OpenChest  {Id = 12}
end

event 188
      Hint = str[3]  -- "Chest"
  0:  OpenChest  {Id = 13}
end

event 189
      Hint = str[3]  -- "Chest"
  0:  OpenChest  {Id = 14}
end

event 190
      Hint = str[3]  -- "Chest"
  0:  OpenChest  {Id = 15}
end

event 191
      Hint = str[3]  -- "Chest"
  0:  OpenChest  {Id = 16}
end

event 192
      Hint = str[3]  -- "Chest"
  0:  OpenChest  {Id = 17}
end

event 193
      Hint = str[3]  -- "Chest"
  0:  OpenChest  {Id = 18}
end

event 194
      Hint = str[3]  -- "Chest"
  0:  OpenChest  {Id = 19}
end

event 195
      Hint = str[3]  -- "Chest"
  0:  OpenChest  {Id = 0}
end

event 196
      Hint = str[10]  -- "Bookcase"
  0:  CheckMonstersKilled  {CheckType = 3, Id = 0, Count = 0,   jump(>=) = 21}
  1:  Cmp  {"QBits", Value = 145,   jump = 3}         -- Membership to the School of Sorcery Scroll Shop
  2:  GoTo  {jump = 21}

  3:  Cmp  {"MapVar2", Value = 3,   jump = 20}
  4:  RandomGoTo  {jumpA = 5, jumpB = 5, jumpC = 5, jumpD = 7, jumpE = 18, jumpF = 21}
  5:  GiveItem  {Strength = 5, Type = const.ItemType.Scroll_, Id = 0}
  6:  GoTo  {jump = 17}

  7:  RandomGoTo  {jumpA = 8, jumpB = 10, jumpC = 12, jumpD = 14, jumpE = 16, jumpF = 17}
  8:  Add  {"Inventory", Value = 401}         -- "Fire Bolt"
  9:  GoTo  {jump = 17}

  10: Add  {"Inventory", Value = 412}         -- "Feather Fall"
  11: GoTo  {jump = 17}

  12: Add  {"Inventory", Value = 414}         -- "Sparks"
  13: GoTo  {jump = 17}

  14: Add  {"Inventory", Value = 479}         -- "Dispel Magic"
  15: GoTo  {jump = 17}

  16: Add  {"Inventory", Value = 467}         -- "Heal"
  17: RandomGoTo  {jumpA = 18, jumpB = 18, jumpC = 18, jumpD = 18, jumpE = 21, jumpF = 21}
  18: Add  {"MapVar2", Value = 1}
  19: GoTo  {jump = 21}

  20: StatusText  {Str = 19}         -- "There are no items that interest you"
  21: Exit  {}

  22: OnRefillTimer  {EachWeek = true}
  23: Set  {"MapVar2", Value = 0}
  24: Exit  {}

  25: OnRefillTimer  {EachYear = true}

  26: OnRefillTimer  {EachYear = true}
  27: ForPlayer  ("All")
  28: Subtract  {"QBits", Value = 145}         -- Membership to the School of Sorcery Scroll Shop
  29: SetNPCTopic  {NPC = 281, Index = 1, Event = 176}         -- "Eric Swarrel" : "Book Shop"
  30: Exit  {}
end

event 197
      Hint = str[10]  -- "Bookcase"
  0:  Cmp  {"QBits", Value = 154,   jump = 4}         -- Got Scroll of Waves
  1:  Add  {"Inventory", Value = 702}         -- "Scroll of Waves"
  2:  Set  {"QBits", Value = 214}         -- Scroll of Waves - I lost it
  3:  Add  {"QBits", Value = 154}         -- Got Scroll of Waves
  4:  Exit  {}
end

event 416
      Hint = str[1]  -- "Door"
  0:  SpeakNPC  {NPC = 48}         -- "Thomas Grey"
end

event 451
      Hint = str[100]  -- ""
  0:  Cmp  {"MapVar4", Value = 1,   jump = 3}
  1:  SpeakNPC  {NPC = 282}         -- "Guard"
  2:  Set  {"MapVar4", Value = 1}
  3:  Exit  {}
end

event 452
      Hint = str[100]  -- ""
  0:  Cmp  {"MapVar4", Value = 2,   jump = 3}
  1:  SetMonGroupBit  {NPCGroup = 5, Bit = const.MonsterBits.Hostile, On = true}         -- "Generic Monster Group for Dungeons"
  2:  Set  {"MapVar4", Value = 2}
  3:  Exit  {}
end

event 453
      Hint = str[100]  -- ""
  0:  Cmp  {"MapVar4", Value = 2,   jump = 2}
  1:  Set  {"MapVar4", Value = 0}
  2:  Exit  {}
end

event 454
      Hint = str[100]  -- ""
  0:  Cmp  {"MapAlert", Value = 0,   jump = 2}
  1:  Exit  {}

  2:  CastSpell  {Spell = 18, Mastery = const.GM, Skill = 15, FromX = 1074, FromY = 1870, FromZ = 1, ToX = 1074, ToY = 293, ToZ = 1}         -- "Lightning Bolt"
  3:  CastSpell  {Spell = 18, Mastery = const.GM, Skill = 15, FromX = -1106, FromY = 1882, FromZ = 1, ToX = -1106, ToY = 293, ToZ = 1}         -- "Lightning Bolt"
  4:  CastSpell  {Spell = 6, Mastery = const.GM, Skill = 10, FromX = -1220, FromY = 427, FromZ = 1, ToX = 1209, ToY = 427, ToZ = 1}         -- "Fireball"
  5:  CastSpell  {Spell = 6, Mastery = const.GM, Skill = 10, FromX = 1209, FromY = 427, FromZ = 1, ToX = -1220, ToY = 427, ToZ = 1}         -- "Fireball"
end

event 455
      Hint = str[1]  -- "Door"
  0:  DamagePlayer  {Player = "Current", DamageType = const.Damage.Water, Damage = 10}
end

event 501
      Hint = str[2]  -- "Leave the School of Sorcery"
  0:  MoveToMap  {X = 1530, Y = -16578, Z = 1377, Direction = 512, LookAngle = 0, SpeedZ = 0, HouseId = 0, Icon = 8, Name = "Out06.odm"}
end
