str[0] = " "
str[1] = "Leave Escaton's Palace"
str[2] = "Door"
str[3] = "Chest"
str[4] = "Lever"
str[5] = "Button"
str[6] = "Take a Drink"
str[7] = "Refreshing"
str[8] = ""
str[9] = "Bookshelf"
str[10] = ""
str[11] = ""
str[12] = ""
str[13] = ""
str[14] = ""
str[15] = "The door is locked"
str[16] = ""
str[17] = ""
str[18] = ""
str[19] = ""
str[20] = ""
str[21] = ""
str[22] = ""
str[23] = ""
str[24] = ""
str[25] = ""
str[26] = ""
str[27] = ""
str[28] = ""
str[29] = ""
str[30] = ""
str[31] = ""
str[32] = ""
str[33] = ""
str[34] = ""
str[35] = ""
str[36] = ""
str[37] = ""
str[38] = ""
str[39] = ""
str[40] = ""
str[41] = ""
str[42] = ""
str[43] = ""
str[44] = ""
str[45] = ""
str[46] = ""
str[47] = ""
str[48] = ""
str[49] = ""
str[50] = ""
str[51] = ""
str[52] = ""
str[53] = ""
str[54] = ""
str[55] = ""
str[56] = ""
str[57] = ""
str[58] = ""
str[59] = ""
str[60] = ""
str[61] = ""
str[62] = ""
str[63] = ""
str[64] = ""
str[65] = ""
str[66] = ""
str[67] = ""
str[68] = ""
str[69] = ""
str[70] = ""
str[71] = ""
str[72] = ""
str[73] = ""
str[74] = ""
str[75] = ""
str[76] = ""
str[77] = ""
str[78] = ""
str[79] = ""
str[80] = ""
str[81] = ""
str[82] = ""
str[83] = ""
str[84] = ""
str[85] = ""
str[86] = ""
str[87] = ""
str[88] = ""
str[89] = ""
str[90] = ""
str[91] = ""
str[92] = ""
str[93] = ""
str[94] = ""
str[95] = ""
str[96] = ""
str[97] = ""
str[98] = ""
str[99] = ""
str[100] = "prison"
str[101] = "jail"
str[102] = "in"
str[103] = "inside"
str[104] = "egg"
str[105] = "an egg"
str[106] = ""
str[107] = ""
str[108] = ""
str[109] = ""
str[110] = ""
str[111] = ""
str[112] = ""
str[113] = ""
str[114] = ""
str[115] = ""
str[116] = ""
str[117] = ""
str[118] = ""
str[119] = ""
str[120] = ""
str[121] = ""


event 1
      Hint = str[100]  -- "prison"

  0:  OnLoadMap  {}
  1:  Exit  {}
end

event 2
      Hint = str[100]  -- "prison"

  0:  OnLoadMap  {}
  1:  Exit  {}
end

event 3
      Hint = str[100]  -- "prison"

  0:  OnLoadMap  {}
  1:  Exit  {}
end

event 4
      Hint = str[100]  -- "prison"

  0:  OnLoadMap  {}
  1:  Exit  {}
end

event 5
      Hint = str[100]  -- "prison"

  0:  OnLoadMap  {}
  1:  Exit  {}
end

event 6
      Hint = str[100]  -- "prison"

  0:  OnLeaveMap  {}
  1:  Exit  {}
end

event 7
      Hint = str[100]  -- "prison"

  0:  OnLeaveMap  {}
  1:  Exit  {}
end

event 8
      Hint = str[100]  -- "prison"

  0:  OnLeaveMap  {}
  1:  Exit  {}
end

event 9
      Hint = str[100]  -- "prison"

  0:  OnLeaveMap  {}
  1:  Exit  {}
end

event 10
      Hint = str[100]  -- "prison"

  0:  OnLeaveMap  {}
  1:  Exit  {}
end

event 11
      Hint = str[2]  -- "Door"
  0:  SetDoorState  {Id = 1, State = 0}
  1:  Exit  {}
end

event 12
      Hint = str[2]  -- "Door"
  0:  SetDoorState  {Id = 2, State = 0}
  1:  Exit  {}
end

event 13
      Hint = str[2]  -- "Door"
  0:  SetDoorState  {Id = 3, State = 0}
  1:  Exit  {}
end

event 14
      Hint = str[2]  -- "Door"
  0:  SetDoorState  {Id = 4, State = 0}
  1:  Exit  {}
end

event 15
      Hint = str[2]  -- "Door"
  0:  SetDoorState  {Id = 5, State = 0}
  1:  Exit  {}
end

event 16
      Hint = str[2]  -- "Door"
  0:  SetDoorState  {Id = 6, State = 0}
  1:  Exit  {}
end

event 17
      Hint = str[2]  -- "Door"
  0:  SetDoorState  {Id = 7, State = 0}
  1:  Exit  {}
end

event 18
      Hint = str[2]  -- "Door"
  0:  SetDoorState  {Id = 8, State = 0}
  1:  Exit  {}
end

event 19
      Hint = str[2]  -- "Door"
  0:  SetDoorState  {Id = 9, State = 0}
  1:  Exit  {}
end

event 20
      Hint = str[2]  -- "Door"
  0:  SetDoorState  {Id = 10, State = 0}
  1:  Exit  {}
end

event 21
      Hint = str[2]  -- "Door"
  0:  SetDoorState  {Id = 11, State = 0}
  1:  Exit  {}
end

event 22
      Hint = str[2]  -- "Door"
  0:  SetDoorState  {Id = 12, State = 0}
  1:  Exit  {}
end

event 23
      Hint = str[2]  -- "Door"
  0:  SetDoorState  {Id = 13, State = 0}
  1:  Exit  {}
end

event 24
      Hint = str[2]  -- "Door"
  0:  SetDoorState  {Id = 14, State = 0}
  1:  Exit  {}
end

event 25
      Hint = str[2]  -- "Door"
  0:  SetDoorState  {Id = 15, State = 0}
  1:  Exit  {}
end

event 26
      Hint = str[2]  -- "Door"
  0:  SetDoorState  {Id = 16, State = 0}
  1:  Exit  {}
end

event 27
      Hint = str[2]  -- "Door"
  0:  SetDoorState  {Id = 17, State = 0}
  1:  Exit  {}
end

event 28
      Hint = str[2]  -- "Door"
  0:  SetDoorState  {Id = 18, State = 0}
  1:  Exit  {}
end

event 29
      Hint = str[2]  -- "Door"
  0:  SetDoorState  {Id = 19, State = 0}
  1:  Exit  {}
end

event 30
      Hint = str[2]  -- "Door"
  0:  SetDoorState  {Id = 20, State = 0}
  1:  Exit  {}
end

event 31
      Hint = str[2]  -- "Door"
  0:  SetDoorState  {Id = 21, State = 0}
  1:  Exit  {}
end

event 32
      Hint = str[2]  -- "Door"
  0:  SetDoorState  {Id = 22, State = 0}
  1:  Exit  {}
end

event 33
      Hint = str[2]  -- "Door"
  0:  SetDoorState  {Id = 23, State = 0}
  1:  Exit  {}
end

event 34
      Hint = str[2]  -- "Door"
  0:  SetDoorState  {Id = 24, State = 0}
  1:  Exit  {}
end

event 35
      Hint = str[2]  -- "Door"
  0:  SetDoorState  {Id = 25, State = 0}
  1:  Exit  {}
end

event 36
      Hint = str[2]  -- "Door"
  0:  SetDoorState  {Id = 26, State = 0}
  1:  Exit  {}
end

event 37
      Hint = str[2]  -- "Door"
  0:  SetDoorState  {Id = 27, State = 0}
  1:  Exit  {}
end

event 38
      Hint = str[2]  -- "Door"
  0:  SetDoorState  {Id = 28, State = 0}
  1:  Exit  {}
end

event 50
      Hint = str[4]  -- "Lever"
  0:  SetDoorState  {Id = 29, State = 0}
  1:  SetDoorState  {Id = 30, State = 0}
  2:  Exit  {}
end

event 51
      Hint = str[4]  -- "Lever"
  0:  SetDoorState  {Id = 31, State = 0}
  1:  SetDoorState  {Id = 32, State = 0}
  2:  Exit  {}
end

event 52
      Hint = str[4]  -- "Lever"
  0:  SetDoorState  {Id = 33, State = 0}
  1:  SetDoorState  {Id = 34, State = 0}
  2:  Exit  {}
end

event 53
      Hint = str[4]  -- "Lever"
  0:  SetDoorState  {Id = 35, State = 0}
  1:  SetDoorState  {Id = 36, State = 0}
  2:  Exit  {}
end

event 54
      Hint = str[4]  -- "Lever"
  0:  SetDoorState  {Id = 37, State = 0}
  1:  SetDoorState  {Id = 38, State = 0}
  2:  Exit  {}
end

event 55
      Hint = str[5]  -- "Button"
  0:  SetDoorState  {Id = 39, State = 0}
  1:  SetDoorState  {Id = 40, State = 0}
  2:  Exit  {}
end

event 56
      Hint = str[4]  -- "Lever"
  0:  SetDoorState  {Id = 41, State = 0}
  1:  SetDoorState  {Id = 42, State = 0}
  2:  Exit  {}
end

event 57
      Hint = str[4]  -- "Lever"
  0:  SetDoorState  {Id = 43, State = 0}
  1:  SetDoorState  {Id = 44, State = 0}
  2:  Exit  {}
end

event 58
      Hint = str[5]  -- "Button"
  0:  SetDoorState  {Id = 45, State = 0}
  1:  SetDoorState  {Id = 46, State = 0}
  2:  Exit  {}
end

event 59
      Hint = str[4]  -- "Lever"
  0:  SetDoorState  {Id = 47, State = 0}
  1:  SetDoorState  {Id = 48, State = 0}
  2:  Exit  {}
end

event 60
      Hint = str[5]  -- "Button"
  0:  SetDoorState  {Id = 49, State = 0}
  1:  SetDoorState  {Id = 50, State = 0}
  2:  Exit  {}
end

event 61
      Hint = str[4]  -- "Lever"
  0:  SetDoorState  {Id = 51, State = 0}
  1:  SetDoorState  {Id = 52, State = 0}
  2:  Exit  {}
end

event 62
      Hint = str[4]  -- "Lever"
  0:  SetDoorState  {Id = 53, State = 0}
  1:  SetDoorState  {Id = 54, State = 0}
  2:  Exit  {}
end

event 63
      Hint = str[5]  -- "Button"
  0:  SetDoorState  {Id = 55, State = 0}
  1:  SetDoorState  {Id = 56, State = 0}
  2:  Exit  {}
end

event 64
      Hint = str[2]  -- "Door"
  0:  SetDoorState  {Id = 57, State = 0}
  1:  SetDoorState  {Id = 58, State = 0}
  2:  Exit  {}
end

event 65
      Hint = str[2]  -- "Door"
  0:  SetDoorState  {Id = 59, State = 0}
  1:  SetDoorState  {Id = 60, State = 0}
  2:  Exit  {}
end

event 66
      Hint = str[2]  -- "Door"
  0:  SetDoorState  {Id = 61, State = 0}
  1:  SetDoorState  {Id = 62, State = 0}
  2:  Exit  {}
end

event 67
      Hint = str[2]  -- "Door"
  0:  SetDoorState  {Id = 63, State = 0}
  1:  SetDoorState  {Id = 64, State = 0}
  2:  Exit  {}
end

event 68
      Hint = str[2]  -- "Door"
  0:  SetDoorState  {Id = 65, State = 0}
  1:  SetDoorState  {Id = 66, State = 0}
  2:  Exit  {}
end

event 69
      Hint = str[2]  -- "Door"
  0:  SetDoorState  {Id = 67, State = 0}
  1:  SetDoorState  {Id = 68, State = 0}
  2:  Exit  {}
end

event 70
      Hint = str[2]  -- "Door"
  0:  SetDoorState  {Id = 69, State = 0}
  1:  SetDoorState  {Id = 70, State = 0}
  2:  Exit  {}
end

event 71
      Hint = str[2]  -- "Door"
  0:  SetDoorState  {Id = 71, State = 0}
  1:  SetDoorState  {Id = 72, State = 0}
  2:  Exit  {}
end

event 72
      Hint = str[2]  -- "Door"
  0:  SetDoorState  {Id = 73, State = 0}
  1:  SetDoorState  {Id = 74, State = 0}
  2:  Exit  {}
end

event 73
      Hint = str[2]  -- "Door"
  0:  SetDoorState  {Id = 75, State = 0}
  1:  SetDoorState  {Id = 76, State = 0}
  2:  Exit  {}
end

event 74
      Hint = str[2]  -- "Door"
  0:  SetDoorState  {Id = 77, State = 0}
  1:  SetDoorState  {Id = 78, State = 0}
  2:  Exit  {}
end

event 75
      Hint = str[2]  -- "Door"
  0:  SetDoorState  {Id = 79, State = 0}
  1:  SetDoorState  {Id = 80, State = 0}
  2:  Exit  {}
end

event 76
      Hint = str[2]  -- "Door"
  0:  SetDoorState  {Id = 81, State = 0}
  1:  SetDoorState  {Id = 82, State = 0}
  2:  Exit  {}
end

event 77
      Hint = str[2]  -- "Door"
  0:  SetDoorState  {Id = 83, State = 0}
  1:  SetDoorState  {Id = 84, State = 0}
  2:  Exit  {}
end

event 81
      Hint = str[3]  -- "Chest"
  0:  OpenChest  {Id = 0}
  1:  Exit  {}
end

event 82
      Hint = str[3]  -- "Chest"
  0:  OpenChest  {Id = 1}
  1:  Exit  {}
end

event 83
      Hint = str[3]  -- "Chest"
  0:  OpenChest  {Id = 2}
  1:  Exit  {}
end

event 84
      Hint = str[3]  -- "Chest"
  0:  OpenChest  {Id = 3}
  1:  Exit  {}
end

event 85
      Hint = str[3]  -- "Chest"
  0:  OpenChest  {Id = 4}
  1:  Exit  {}
end

event 86
      Hint = str[3]  -- "Chest"
  0:  OpenChest  {Id = 5}
  1:  Exit  {}
end

event 87
      Hint = str[3]  -- "Chest"
  0:  OpenChest  {Id = 6}
  1:  Exit  {}
end

event 88
      Hint = str[3]  -- "Chest"
  0:  OpenChest  {Id = 7}
  1:  Exit  {}
end

event 89
      Hint = str[3]  -- "Chest"
  0:  OpenChest  {Id = 8}
  1:  Exit  {}
end

event 90
      Hint = str[3]  -- "Chest"
  0:  OpenChest  {Id = 9}
  1:  Exit  {}
end

event 91
      Hint = str[3]  -- "Chest"
  0:  OpenChest  {Id = 10}
  1:  Exit  {}
end

event 92
      Hint = str[3]  -- "Chest"
  0:  OpenChest  {Id = 11}
  1:  Exit  {}
end

event 93
      Hint = str[3]  -- "Chest"
  0:  OpenChest  {Id = 12}
  1:  Exit  {}
end

event 94
      Hint = str[3]  -- "Chest"
  0:  OpenChest  {Id = 13}
  1:  Exit  {}
end

event 95
      Hint = str[3]  -- "Chest"
  0:  OpenChest  {Id = 14}
  1:  Exit  {}
end

event 96
      Hint = str[3]  -- "Chest"
  0:  OpenChest  {Id = 15}
  1:  Exit  {}
end

event 97
      Hint = str[3]  -- "Chest"
  0:  OpenChest  {Id = 16}
  1:  Exit  {}
end

event 98
      Hint = str[3]  -- "Chest"
  0:  OpenChest  {Id = 17}
  1:  Exit  {}
end

event 99
      Hint = str[3]  -- "Chest"
  0:  OpenChest  {Id = 18}
  1:  Exit  {}
end

event 100
      Hint = str[3]  -- "Chest"
  0:  OpenChest  {Id = 19}
  1:  Exit  {}
end

event 201
      Hint = str[100]  -- "prison"
  0:  EnterHouse  {Id = 184}         -- "Escaton's Throne Room"
  1:  Exit  {}
end

event 451
      Hint = str[6]  -- "Take a Drink"
  0:  StatusText  {Str = 7}         -- "Refreshing"
  1:  Exit  {}
end

event 501
      Hint = str[1]  -- "Leave Escaton's Palace"
  0:  MoveToMap  {X = 1482, Y = -1643, Z = 209, Direction = 512, LookAngle = 0, SpeedZ = 0, HouseId = 0, Icon = 1, Name = "pbp.odm"}
  1:  Exit  {}
end
