str[0] = " "
str[1] = ""
str[2] = ""
str[3] = ""
str[4] = ""
str[5] = ""
str[6] = ""
str[7] = ""
str[8] = ""
str[9] = ""
str[10] = ""
str[11] = ""
str[12] = ""
str[13] = ""
str[14] = ""
str[15] = ""
str[16] = ""
str[17] = ""
str[18] = ""
str[19] = ""
str[20] = ""
str[21] = ""
str[22] = ""
str[23] = ""
str[24] = ""
str[25] = ""
str[26] = ""
str[27] = ""
str[28] = ""
str[29] = ""
str[30] = ""
str[31] = ""
str[32] = ""
str[33] = ""
str[34] = ""
str[35] = ""
str[36] = ""
str[37] = ""
str[38] = ""
str[39] = ""
str[40] = ""
str[41] = ""
str[42] = ""
str[43] = "A giant's sword"
str[44] = "Escaton's Crystal"
str[45] = "Escaton's Palace"
str[46] = "Prison of the Air Lord"
str[47] = "Prison of the Earth Lord"
str[48] = "Prison of the Fire Lord"
str[49] = "Prison of the Water Lord"
str[50] = "Enter Escaton's Palace"
str[51] = "Enter the Prison of the Air Lord"
str[52] = "Enter the Prison of the Fire Lord"
str[53] = "Enter the Prison of the Water Lord"
str[54] = "Enter the Prison of the Earth Lord"
str[55] = "Enter Escaton's Crystal"
str[56] = ""
str[57] = ""
str[58] = ""
str[59] = ""
str[60] = ""
str[61] = ""
str[62] = ""
str[63] = ""
str[64] = ""
str[65] = ""
str[66] = ""
str[67] = ""
str[68] = ""
str[69] = ""
str[70] = ""
str[71] = ""
str[72] = ""
str[73] = ""
str[74] = ""
str[75] = ""
str[76] = ""
str[77] = ""
str[78] = ""
str[79] = ""
str[80] = ""
str[81] = ""
str[82] = ""
str[83] = ""
str[84] = ""
str[85] = ""
str[86] = ""
str[87] = ""
str[88] = ""
str[89] = ""
str[90] = ""
str[91] = ""
str[92] = ""
str[93] = ""
str[94] = ""
str[95] = ""
str[96] = ""
str[97] = ""
str[98] = ""
str[99] = ""
str[100] = ""
str[101] = ""
str[102] = ""
str[103] = ""
str[104] = ""
str[105] = ""
str[106] = ""
str[107] = ""
str[108] = ""
str[109] = ""
str[110] = ""
str[111] = ""
str[112] = ""
str[113] = ""
str[114] = ""
str[115] = ""
str[116] = ""
str[117] = ""
str[118] = ""
str[119] = ""
str[120] = ""
str[121] = ""


event 1
      Hint = str[100]  -- ""

  0:  OnLoadMap  {}
  1:  Exit  {}
end

event 2
      Hint = str[100]  -- ""

  0:  OnLoadMap  {}
  1:  Exit  {}
end

event 3
      Hint = str[100]  -- ""

  0:  OnLoadMap  {}
  1:  Exit  {}
end

event 4
      Hint = str[100]  -- ""

  0:  OnLoadMap  {}
  1:  Exit  {}
end

event 5
      Hint = str[100]  -- ""

  0:  OnLoadMap  {}
  1:  Exit  {}
end

event 6
      Hint = str[100]  -- ""

  0:  OnLeaveMap  {}
  1:  Exit  {}
end

event 7
      Hint = str[100]  -- ""

  0:  OnLeaveMap  {}
  1:  Exit  {}
end

event 8
      Hint = str[100]  -- ""

  0:  OnLeaveMap  {}
  1:  Exit  {}
end

event 9
      Hint = str[100]  -- ""

  0:  OnLeaveMap  {}
  1:  Exit  {}
end

event 10
      Hint = str[100]  -- ""

  0:  OnLeaveMap  {}
  1:  Exit  {}
end

event 81
      Hint = str[3]  -- ""
  0:  OpenChest  {Id = 0}
  1:  Exit  {}
end

event 82
      Hint = str[3]  -- ""
  0:  OpenChest  {Id = 1}
  1:  Exit  {}
end

event 83
      Hint = str[3]  -- ""
  0:  OpenChest  {Id = 2}
  1:  Exit  {}
end

event 84
      Hint = str[3]  -- ""
  0:  OpenChest  {Id = 3}
  1:  Exit  {}
end

event 85
      Hint = str[3]  -- ""
  0:  OpenChest  {Id = 4}
  1:  Exit  {}
end

event 86
      Hint = str[3]  -- ""
  0:  OpenChest  {Id = 5}
  1:  Exit  {}
end

event 87
      Hint = str[3]  -- ""
  0:  OpenChest  {Id = 6}
  1:  Exit  {}
end

event 88
      Hint = str[3]  -- ""
  0:  OpenChest  {Id = 7}
  1:  Exit  {}
end

event 89
      Hint = str[3]  -- ""
  0:  OpenChest  {Id = 8}
  1:  Exit  {}
end

event 90
      Hint = str[3]  -- ""
  0:  OpenChest  {Id = 9}
  1:  Exit  {}
end

event 91
      Hint = str[3]  -- ""
  0:  OpenChest  {Id = 10}
  1:  Exit  {}
end

event 92
      Hint = str[3]  -- ""
  0:  OpenChest  {Id = 11}
  1:  Exit  {}
end

event 93
      Hint = str[3]  -- ""
  0:  OpenChest  {Id = 12}
  1:  Exit  {}
end

event 94
      Hint = str[3]  -- ""
  0:  OpenChest  {Id = 13}
  1:  Exit  {}
end

event 95
      Hint = str[3]  -- ""
  0:  OpenChest  {Id = 14}
  1:  Exit  {}
end

event 96
      Hint = str[3]  -- ""
  0:  OpenChest  {Id = 15}
  1:  Exit  {}
end

event 97
      Hint = str[3]  -- ""
  0:  OpenChest  {Id = 16}
  1:  Exit  {}
end

event 98
      Hint = str[3]  -- ""
  0:  OpenChest  {Id = 17}
  1:  Exit  {}
end

event 99
      Hint = str[3]  -- ""
  0:  OpenChest  {Id = 18}
  1:  Exit  {}
end

event 100
      Hint = str[3]  -- ""
  0:  OpenChest  {Id = 19}
  1:  Exit  {}
end

event 401
      Hint = str[45]  -- "Escaton's Palace"
  0:  Exit  {}
end

event 402
      Hint = str[46]  -- "Prison of the Air Lord"
  0:  Exit  {}
end

event 403
      Hint = str[47]  -- "Prison of the Earth Lord"
  0:  Exit  {}
end

event 404
      Hint = str[48]  -- "Prison of the Fire Lord"
  0:  Exit  {}
end

event 405
      Hint = str[49]  -- "Prison of the Water Lord"
  0:  Exit  {}
end

event 406
      Hint = str[44]  -- "Escaton's Crystal"
  0:  Exit  {}
end

event 501
      Hint = str[50]  -- "Enter Escaton's Palace"
  0:  MoveToMap  {X = -704, Y = -5312, Z = 1, Direction = 512, LookAngle = 0, SpeedZ = 0, HouseId = 218, Icon = 1, Name = "d35.blv"}         -- "Escaton's Palace"
  1:  Exit  {}
end

event 502
      Hint = str[51]  -- "Enter the Prison of the Air Lord"
  0:  ForPlayer  ("All")
  1:  Cmp  {"Inventory", Value = 629,   jump = 4}         -- "Ring of Keys"
  2:  FaceAnimation  {Player = "Current", Animation = 18}
  3:  GoTo  {jump = 5}

  4:  MoveToMap  {X = -733, Y = -2563, Z = -1051, Direction = 960, LookAngle = 0, SpeedZ = 0, HouseId = 219, Icon = 1, Name = "d36.blv"}         -- "Prison of the Lord of Air"
  5:  Exit  {}
end

event 503
      Hint = str[52]  -- "Enter the Prison of the Fire Lord"
  0:  ForPlayer  ("All")
  1:  Cmp  {"Inventory", Value = 629,   jump = 4}         -- "Ring of Keys"
  2:  FaceAnimation  {Player = "Current", Animation = 18}
  3:  GoTo  {jump = 5}

  4:  MoveToMap  {X = -128, Y = 896, Z = 1, Direction = 1536, LookAngle = 0, SpeedZ = 0, HouseId = 455, Icon = 1, Name = "d37.blv"}         -- "Prison of the Lord of Fire"
  5:  Exit  {}
end

event 504
      Hint = str[53]  -- "Enter the Prison of the Water Lord"
  0:  ForPlayer  ("All")
  1:  Cmp  {"Inventory", Value = 629,   jump = 4}         -- "Ring of Keys"
  2:  FaceAnimation  {Player = "Current", Animation = 18}
  3:  GoTo  {jump = 5}

  4:  MoveToMap  {X = 2393, Y = -10664, Z = 1, Direction = 520, LookAngle = 0, SpeedZ = 0, HouseId = 456, Icon = 1, Name = "d38.blv"}         -- "Prison of the Lord of Water"
  5:  Exit  {}
end

event 505
      Hint = str[54]  -- "Enter the Prison of the Earth Lord"
  0:  ForPlayer  ("All")
  1:  Cmp  {"Inventory", Value = 629,   jump = 4}         -- "Ring of Keys"
  2:  FaceAnimation  {Player = "Current", Animation = 18}
  3:  GoTo  {jump = 5}

  4:  MoveToMap  {X = -2, Y = 118, Z = 1, Direction = 2047, LookAngle = 0, SpeedZ = 0, HouseId = 454, Icon = 1, Name = "d39.blv"}         -- "Prison of the Lord of Earth"
  5:  Exit  {}
end

event 506
      Hint = str[55]  -- "Enter Escaton's Crystal"
  0:  MoveToMap  {X = -14232, Y = -2956, Z = 800, Direction = 432, LookAngle = 0, SpeedZ = 0, HouseId = 0, Icon = 1, Name = "D10.blv"}
  1:  Exit  {}
end

event 507
      Hint = str[43]  -- "A giant's sword"
  0:  Cmp  {"Inventory", Value = 634,   jump = 2}         -- "Flute"
  1:  GoTo  {jump = 3}

  2:  MoveToMap  {X = 19, Y = -601, Z = 1, Direction = 1552, LookAngle = 0, SpeedZ = 0, HouseId = 0, Icon = 1, Name = "d50.blv"}
  3:  Exit  {}
end
